Name,Adress,Mission
e-mail controller LEO,controller.LEO@eumetsat.int,EPS_1
e-mail analyst LEO,analyst.Leo@eumetsat.int,EPS_1
OPS-Metop-Team,OPS-Metop-Team@eumetsat.int,EPS_1
FDyn LEO,FDyn.LEO@eumetsat.int,EPS_1
EPS_MCS,EPS_MCS@eumetsat.int,EPS_1
Ground_Station_Ops,Ground_Station_Ops@eumetsat.int,EPS_1
e-mail OPS opsreports,opsreports@eumetsat.int,EPS_1
ops-dp,ops-dp@eumetsat.int,EPS_1
Radio Occultation,radio.occultation@eumetsat.int,EPS_1
E-Mail Comms,comms@eumetsat.int,EPS_1
CSM-AIX-Team,CSM-AIX-Team@eumetsat.int,EPS_1
E-mail CSM-Solaris-Team,CSMSolaris@eumetsat.int,EPS_1
E-mail CSM-Windows-Team,CSMWindows@eumetsat.int,EPS_1
EARS_OPS,EARS_OPS@eumetsat.int,EPS_1
EARS CMS,pupprod@meteo.fr,EPS_1
EARS CMS CC,rdo.rt.cms@meteo.fr,EPS_1
EARS DMI,opr@dmi.dk,EPS_1
EARS HNMS,calldesk@hnms.gr,EPS_1
EARS INTA,dominguezda@inta.es,EPS_1
EARS CMC,netops@ec.gc.ca,EPS_1
EARS KSAT,sgs@ksat.no,EPS_1
EARS NOAA,opr@dmi.dk,EPS_1
EARS Roshydromet,"uspensky@planet.iitp.ru; nikitaekimov@planet.iitp.ru; zvaluk@planet.iitp.ru; erastov_ad@planet.iitp.ru",EPS_1
EARS DGMAN,admin@met.gov.om,EPS_1
e-mail Saral,Saral@eumetsat.int,EPS_1
E-mail Jason,Jason@eumetsat.int,EPS_1
Mission Planning LEO,missionplanning.leo@eumetsat.int,EPS_1