,Mission,shortcut,Name,NORAD CAT ID,Comment
METOP-A,EPS1,M02,MetOp A,29499,1
METOP-B,EPS1,M01,MetOp B,38771,1
METOP-C,EPS1,M03,MetOp C,43689,1
NOAA 19,EPS1,N19,N19,33591,2
NOAA 18,EPS1,N18,N18,28654,2
JASON 3,EPS1,JASON,JASON,41240,3
SARAL,EPS1,SARAL,SARAL,39086,3
SENTINEL 3A,S3,S3A,Sentinel 3A,41335,1
SENTINEL 3B,S3,S3B,Sentinel 3B,43437,1
S6 MICHAEL FREILICH,S6,S6,Sentinel 6,46984,1
