File : ITRF94.SSCX : STATION COORDINATES AT EPOCH 2003.0


DOMES NB. SITE NAME       TECH. ID.       *                X/Vx         Y/Vy         Z/Vz           Sigmas
                                                           -----------------------m/m/y------------------------  
---------------------------------------------------------------------------------------------------------------                           
00020S001 DA_RUS            SBD RUS_                    4072801.716   617884.329  4853287.404
00020S001                                                     0.000        0.000        0.000
40102S001 DND_LUT           SBD DND_                    1111379.741 -4352023.006  4513102.229
40102S001                                                     0.000        0.000        0.000
49907S001 GSFC_LUT          SBD GSFC                    1130113.629 -4867918.692  3949898.076
49907S001                                                     0.000        0.000        0.000
20805S001 ASCAT_T1          SBD ASC1                    4135044.539  2665713.472  4047224.578
20805S001                                                     0.000        0.000        0.000
20804S001 ASCAT_T2          SBD ASC2                    4240638.799  2531757.591  4024135.334
20804S001                                                     0.000        0.000        0.000
20802S001 ASCAT_T3          SBD ASC3                    4004517.451  2826628.881  4069510.278
20802S001                                                     0.000        0.000        0.000
10003S001 CNES_LUT          SBD CNES                    4629287.242   119605.133  4371184.344
10003S001                                                     0.000        0.000        0.000
14106S001 LINDBE            SBD LIN_                    3804594.751   969779.042  5009723.381
14106S001                                                     0.000        0.000        0.000
10503S001 SODANK            SBD SOD_                    2200336.852  1103432.171  5864585.415
10503S001                                                     0.000        0.000        0.000
